{
  "result": {
    "data": [
      {
        "id": 153,
        "name": "အစမ်း ပစ်စည်းများ 1"
      },
      {
        "id": 153,
        "name": "အစမ်း ပစ်စည်းများ 2"
      },
      {
        "id": 153,
        "name": "အစမ်း ပစ်စည်းများ 3"
      },
      {
        "id": 153,
        "name": "အစမ်း ပစ်စည်းများ 4"
      },
      {
        "id": 153,
        "name": "အစမ်း ပစ်စည်းများ 5"
      },
      {
        "id": 153,
        "name": "အစမ်း ပစ်စည်းများ 6"
      },
      {
        "id": 153,
        "name": "အစမ်း ပစ်စည်းများ 7"
      },
      {
        "id": 153,
        "name": "အစမ်း ပစ်စည်းများ 8"
      },
      {
        "id": 153,
        "name": "အစမ်း ပစ်စည်းများ 9"
      },
      {
        "id": 153,
        "name": "အစမ်း ပစ်စည်းများ 10"
      }
    ],
    "pagination": {
      "lastPage": 4,
      "currentPage": 1,
      "perPage": 10,
      "totalItems": 20
    },
    "statusCode": 200,
    "message": "Success"
  }
}